ATdatabase • ATdatabase
…
#>  Mode  :character   Mode  :character   Median :  13.620   Median :1.644e+09  
#>                                        Mean   : 147.755   Mean   :1.644e+09  
#>                                        3rd Qu.:  62.260   3rd Qu.:1.644e+09  
#>                                        Max.   :1028.000   Max.   :1.644e+09  
#>                                        NA's   :587                           
#>       lat             lon       
#>  Min.   :51.48   Min.   :3.959  
#>  1st Qu.:51.89   1st Qu.:4.355  
#>  Median :51.92   Median :4.460  
#>  Mean   :51.88   Mean   :4.380  
#>  3rd Qu.:51.94   3rd Qu.:4.488  
#>  Max.   :51.98   Max.   :4.503  
#> 
exdata
#> # A tibble: 11,670 × 6
#>    station   parameter value  timestamp   lat   lon
#>    <chr>     <chr>     <dbl>      <int> <dbl> <dbl>
#>  1 SSK_LH022 pres      1024  1643673600  51.5  3.96
#>  2 SSK_LH022 pres      1023. 1643677200  51.5  3.96
#>  3 SSK_LH022 pres      1023. 1643680800  51.5  3.96
#>  4 SSK_LH022 pres      1023  1643684400  51.5  3.96
#>  5 SSK_LH022 pres      1023. 1643688000  51.5  3.96
#>  6 SSK_LH022 pres      1022. 1643691600  51.5  3.96
#>  7 SSK_LH022 pres      1021. 1643695200  51.5  3.96
#>  8 SSK_LH022 pres      1020  1643698800  51.5  3.96
#>  9 SSK_LH022 pres      1019. 1643702400  51.5  3.96
#> 10 SSK_LH022 pres      1019. 1643706000  51.5  3.96
#> # … with 11,660 more rows
…
Just as example, we call this function directly to show the input arguments and output. For station SSK_LH022 we wil get the data for the time range 2022-02-01 to 2022-02-07 23:00:00. The download_data_fun requires that we provide this timerange as matrix, with time in seconds. We use the datetime_to_matrix function to convert our timestamps

statname
#> [1] "SSK_LH022"
start_date
#> [1] "2022-02-01 UTC"
end_date
#> [1] "2022-02-07 23:00:00 UTC"

time_stamp <- datetime_to_matrix(start_date, end_date)

x <- download_data_fun(time_stamp, statname, dbconn)
x
#> # A tibble: 1,161 × 6
#>    station   parameter value  timestamp   lon aggregation
#>    <chr>     <chr>     <dbl>      <int> <dbl>       <dbl>
#>  1 SSK_LH022 pres      1023. 1643677200  3.96        3600
#>  2 SSK_LH022 pres      1023. 1643680800  3.96        3600
#>  3 SSK_LH022 pres      1023  1643684400  3.96        3600
#>  4 SSK_LH022 pres      1023. 1643688000  3.96        3600
#>  5 SSK_LH022 pres      1022. 1643691600  3.96        3600
#>  6 SSK_LH022 pres      1021. 1643695200  3.96        3600
#>  7 SSK_LH022 pres      1020  1643698800  3.96        3600
#>  8 SSK_LH022 pres      1019. 1643702400  3.96        3600
#>  9 SSK_LH022 pres      1019. 1643706000  3.96        3600
#> 10 SSK_LH022 pres      1018  1643709600  3.96        3600
#> # … with 1,151 more rows
…
The result variable contains a list with all the downloaded datasets. However, since all the data is allready stored we can simply ignore the result.

Using the data

If you want to use the location info or the measurements from the database, you can select them directly. It is easy to create a such selection of data using dplyr functions. For example to select all the measurements for station SSK_LH022:

library(dplyr)
result <- tbl(dbconn, "measurements") %>%
    filter(station == statname) %>%
    select(parameter, value, timestamp) %>%
    collect() %>%
    mutate(timestamp  = lubridate::as_datetime(timestamp))
result
#> # A tibble: 1,161 × 3
#>    parameter   value timestamp          
#>    <chr>       <dbl> <dttm>             
#>  1 pres      1023.   2022-02-01 01:00:00
#>  2 rh          71.6  2022-02-01 01:00:00
#>  3 temp         5.38 2022-02-01 01:00:00
#>  4 no2          2.12 2022-02-01 01:00:00
#>  5 pm10_kal    18.3  2022-02-01 01:00:00
#>  6 pm10        21    2022-02-01 01:00:00
#>  7 pm25_kal     6.13 2022-02-01 01:00:00
#>  8 pm25         6.13 2022-02-01 01:00:00
#>  9 pres      1023.   2022-02-01 02:00:00
#> 10 rh          72.9  2022-02-01 02:00:00
#> # … with 1,151 more rows
…
